[249, 182, 79]
[136, 198, 95]
[159, 167, 6]
[223, 136, 101]
[66, 27, 77]
[213, 234, 239]
[25, 36, 53]
[89, 113, 149]
[65, 127, 119]
[50, 63, 147]
[204, 189, 228]
[228, 229, 4]
[64, 12, 191]
[65, 176, 96]
[185, 52, 207]
[37, 24, 110]
[62, 213, 244]
[141, 59, 81]
[166, 50, 189]
[228, 5, 16]
[59, 42, 251]
[180, 239, 144]
[13, 209, 132]
[184, 161, 235, 97, 140, 111, 84, 182, 162, 135, 76, 10, 69, 246, 195, 152, 133, 88, 229, 104, 111, 22, 39]
[9925, 8861, 5738, 1649, 2696, 6926, 1839, 7825, 6434, 9699, 227, 7379, 9024, 817, 4022, 7129, 1096, 4149, 6147, 2966, 1027, 4350, 4272]